Booth Multiplier verilog/getFile.vcd
$date
	Mon Jan 29 08:14:48 2024
$end

$version
	Synopsys VCS version S-2021.09
$end

$timescale
	1ns
$end

$comment Csum: 1 294913b1eae7247d $end


$scope module Test $end
$var reg 8 ! A [7:0] $end
$var reg 8 " B [7:0] $end
$var wire 16 # p [15:0] $end
$var integer 32 $ count $end
$var reg 1 % load $end
$var reg 1 & clk $end
$var reg 1 ' reset $end

$scope begin unnamed$$_vcs_0 $end
$upscope $end


$scope module DUT $end
$var wire 8 ( A [7:0] $end
$var wire 8 ) B [7:0] $end
$var wire 1 & clk $end
$var wire 1 ' reset $end
$var wire 16 * P [15:0] $end
$var wire 8 + reg_A [7:0] $end
$var wire 9 , reg_B [8:0] $end
$var wire 1 - one $end
$var wire 1 . two $end
$var wire 1 / neg $end
$var wire 9 0 mux1out [8:0] $end
$var wire 9 1 mux2out [8:0] $end
$var wire 16 2 adderout [15:0] $end
$var wire 7 3 zeros [6:0] $end
$var wire 16 4 regPin [15:0] $end

$scope module registerA $end
$var wire 8 ( data_in [7:0] $end
$var reg 8 + data_out [7:0] $end
$var wire 1 & clk $end
$var wire 1 ' reset $end
$upscope $end


$scope module registerS2B $end
$var wire 9 5 data_in [8:0] $end
$var reg 9 , data_out [8:0] $end
$var wire 1 & clk $end
$var wire 1 ' reset $end
$var reg 9 6 count [8:0] $end
$upscope $end


$scope module en $end
$var wire 3 7 y [2:0] $end
$var reg 1 - one $end
$var reg 1 . two $end
$var reg 1 / neg $end
$upscope $end


$scope module mux1 $end
$var wire 9 8 in1 [8:0] $end
$var wire 9 9 in2 [8:0] $end
$var wire 1 . s $end
$var wire 9 0 out [8:0] $end
$upscope $end


$scope module mux2 $end
$var wire 9 0 in1 [8:0] $end
$var wire 9 : in2 [8:0] $end
$var wire 1 - s $end
$var wire 9 1 out [8:0] $end
$upscope $end


$scope module add $end
$var wire 16 ; A [15:0] $end
$var wire 16 < B [15:0] $end
$var wire 1 / neg $end
$var wire 16 2 result [15:0] $end
$var wire 16 = temp [15:0] $end
$upscope $end


$scope module registerP $end
$var wire 16 > data_in [15:0] $end
$var reg 16 * data_out [15:0] $end
$var wire 1 & clk $end
$var wire 1 ' reset $end
$upscope $end

$upscope $end

$upscope $end

$enddefinitions $end

#0
$dumpvars
0&
x/
x-
x.
0'
0%
b10000001 (
b10000100 )
bxxxxxxxxx 6
bxxxxxxxxx0000000 <
bxxxxxxxxxxxxxxxx 2
b00000000000000000000000000000000 $
bxxxxxxxx +
bxxxxxxxxxxxxxxxx #
bxxxxxxxxxxxxxxxx *
bxxxxxxxxx ,
bxxxxxxxxx0000000 =
bxxxxxxxxx 5
bxxxxxxxxxxxxxxxx 4
bxxxxxxxxxxxxxxxx >
bxxxxxxxxx 9
bxxxxxxxxx 0
bxxxxxxxxx 1
bxxxxxxxxx :
bxxxxxxxxxxxxxxxx ;
bxxx 7
b10000001 !
b10000100 "
b000000000 8
b0000000 3
$end
b10000100x 5
b0xxxxxxxxxxxxxxx 4
bxxxxxxxx0 0
bxxxxxxxx0 9
b100001000 5
#5
1&
1'
b00000000 +
b000000000 0
b000000000 :
b000000000 1
b000000000 9
b000000000 ,
b000 7
b000000000 6
b0000000000000000 *
b0000000000000000 ;
b0000000000000000 #
b0000000000000000 <
b0000000000000000 =
0-
0.
0/
b0000000000000000 2
b0000000000000000 >
b0000000000000000 4
#10
0&
#15
1&
#20
0&
#25
1&
0'
#30
0&
#35
1&
b00000000000000000000000000000001 $
b10000001 +
b110000001 :
b100000010 9
b100001000 ,
b100000000 6
#40
0&
#45
1&
b00000000000000000000000000000010 $
b001000000 6
b001000010 ,
b010 7
1-
b110000001 1
b1100000010000000 <
b0011111110000000 =
b1100000010000000 2
b1110000001000000 >
b0110000001000000 4
#50
0&
#55
1&
b00000000000000000000000000000011 $
b000010000 6
b000010000 ,
b000 7
b1110000001000000 *
b1111000000100000 ;
b1110000001000000 #
0-
b000000000 1
b1011000010100000 2
b1101100001010000 >
b0101100001010000 4
b0000000000000000 <
b0000000000000000 =
b1111000000100000 2
b1111100000010000 >
b0111100000010000 4
#60
0&
#65
1&
b00000000000000000000000000000100 $
b000000100 6
b000000100 ,
b100 7
b1111100000010000 *
b1111110000001000 ;
b1111100000010000 #
1.
b100000010 0
b100000010 1
1/
b1111110000001000 2
b1111111000000100 >
b0111111000000100 4
b1000000100000000 <
b0111111100000000 =
b0111101100001000 2
b0011110110000100 >
b0011110110000100 4
#70
0&
#75
1&
b00000000000000000000000000000101 $
b000000001 6
b000000001 ,
b001 7
b0011110110000100 *
b0001111011000010 ;
b0011110110000100 #
1-
b000000000 0
b110000001 1
0.
0/
b1001111111000010 2
b1100111111100001 >
b0100111111100001 4
b1100000010000000 <
b0011111110000000 =
b1101111101000010 2
b1110111110100001 >
b0110111110100001 4
#80
0&
#85
1&
b00000000000000000000000000000000 $
1%
b000000000 6
b000000000 ,
b000 7
b1110111110100001 *
b1111011111010000 ;
b1110111110100001 #
0-
b000000000 1
b1011100001010000 2
b1101110000101000 >
b0101110000101000 4
b0000000000000000 <
b0000000000000000 =
b1111011111010000 2
b1111101111101000 >
b0111101111101000 4
#90
0&
#95
1&
1'
b100001000 ,
b100000000 6
b1111101111101000 *
b1111110111110100 ;
b1111101111101000 #
b1111110111110100 2
b1111111011111010 >
b0111111011111010 4
#100
0&
#105
1&
b00000000 +
b000000000 :
b000000000 9
b000000000 ,
b000000000 6
b0000000000000000 *
b0000000000000000 ;
b0000000000000000 #
b0000000000000000 2
b0000000000000000 >
b0000000000000000 4
#110
0&
#115
1&
0'
b01110000 !
b01110000 (
b01110110 "
b01110110 )
b011101100 5
0%
#120
0&
#125
1&
b00000000000000000000000000000001 $
b01110000 +
b001110000 :
b011100000 9
b011101100 ,
b100 7
b100000000 6
1.
b011100000 0
b011100000 1
1/
b0111000000000000 <
b1001000000000000 =
b1001000000000000 2
b1100100000000000 >
b0100100000000000 4
#130
0&
#135
1&
b00000000000000000000000000000010 $
b001000000 6
b000111011 ,
b011 7
b1100100000000000 *
b1110010000000000 ;
b1100100000000000 #
0/
b0101010000000000 2
b0010101000000000 >
b0010101000000000 4
#140
0&
#145
1&
b00000000000000000000000000000011 $
b000010000 6
b000001110 ,
b110 7
b0010101000000000 *
b0001010100000000 ;
b0010101000000000 #
1-
b000000000 0
b001110000 1
0.
1/
b1010010100000000 2
b1101001010000000 >
b0101001010000000 4
b0011100000000000 <
b1100100000000000 =
b1101110100000000 2
b1110111010000000 >
b0110111010000000 4
#150
0&
#155
1&
b00000000000000000000000000000100 $
b000000100 6
b000000011 ,
b011 7
b1110111010000000 *
b1111011101000000 ;
b1110111010000000 #
0-
b011100000 0
b011100000 1
1.
0/
b0010111101000000 2
b0001011110100000 >
b0001011110100000 4
b0111000000000000 <
b1001000000000000 =
b0110011101000000 2
b0011001110100000 >
b0011001110100000 4
#160
0&
#165
1&
b00000000000000000000000000000101 $
b000000001 6
b000000000 ,
b000 7
b0011001110100000 *
b0001100111010000 ;
b0011001110100000 #
0.
b000000000 0
b000000000 1
b1000100111010000 2
b1100010011101000 >
b0100010011101000 4
b0000000000000000 <
b0000000000000000 =
b0001100111010000 2
b0000110011101000 >
b0000110011101000 4
#170
0&
#175
1&
b00000000000000000000000000000000 $
1%
b000000000 6
b0000110011101000 *
b0000011001110100 ;
b0000110011101000 #
b0000011001110100 2
b0000001100111010 >
b0000001100111010 4
#180
0&
#185
1&
1'
b011101100 ,
b100 7
b100000000 6
b0000001100111010 *
b0000000110011101 ;
b0000001100111010 #
1.
b011100000 0
b011100000 1
1/
b0000000110011101 2
b0000000011001110 >
b0000000011001110 4
b0111000000000000 <
b1001000000000000 =
b1001000110011101 2
b1100100011001110 >
b0100100011001110 4
#190
0&
#195
1&
b00000000 +
b000000000 0
b000000000 :
b000000000 1
b000000000 9
b000000000 ,
b000 7
b000000000 6
b0000000000000000 *
b0000000000000000 ;
b0000000000000000 #
b0000000000000000 <
b0000000000000000 =
0.
0/
b0000000000000000 2
b0000000000000000 >
b0000000000000000 4
#200
0&
#205
1&
0'
b01000000 !
b01000000 (
b01000000 "
b01000000 )
b010000000 5
0%
#210
0&
#215
1&
b00000000000000000000000000000001 $
b01000000 +
b001000000 :
b010000000 9
b010000000 ,
b100000000 6
#220
0&
#225
1&
b00000000000000000000000000000010 $
b001000000 6
b000100000 ,
#230
0&
#235
1&
b00000000000000000000000000000011 $
b000010000 6
b000001000 ,
#240
0&
#245
1&
b00000000000000000000000000000100 $
b000000100 6
b000000010 ,
b010 7
1-
b001000000 1
b0010000000000000 <
b1110000000000000 =
b0010000000000000 2
b0001000000000000 >
b0001000000000000 4
#250
0&
#255
1&
b00000000000000000000000000000101 $
b000000001 6
b000000000 ,
b000 7
b0001000000000000 *
b0000100000000000 ;
b0001000000000000 #
0-
b000000000 1
b0010100000000000 2
b0001010000000000 >
b0001010000000000 4
b0000000000000000 <
b0000000000000000 =
b0000100000000000 2
b0000010000000000 >
b0000010000000000 4
#260
0&
#265
1&
b00000000000000000000000000000000 $
1%
b000000000 6
b0000010000000000 *
b0000001000000000 ;
b0000010000000000 #
b0000001000000000 2
b0000000100000000 >
b0000000100000000 4
#270
0&
#275
1&
1'
b010000000 ,
b100000000 6
b0000000100000000 *
b0000000010000000 ;
b0000000100000000 #
b0000000010000000 2
b0000000001000000 >
b0000000001000000 4
#280
0&
#285
1&
b00000000 +
b000000000 :
b000000000 9
b000000000 ,
b000000000 6
b0000000000000000 *
b0000000000000000 ;
b0000000000000000 #
b0000000000000000 2
b0000000000000000 >
b0000000000000000 4
#290
0&
#295
1&
0'
b01010111 !
b01010111 (
b01100101 "
b01100101 )
b011001010 5
0%
#300
0&
#305
1&
b00000000000000000000000000000001 $
b01010111 +
b001010111 :
b010101110 9
b011001010 ,
b010 7
b100000000 6
1-
b001010111 1
b0010101110000000 <
b1101010010000000 =
b0010101110000000 2
b0001010111000000 >
b0001010111000000 4
#310
0&
#315
1&
b00000000000000000000000000000010 $
b001000000 6
b000110010 ,
b0001010111000000 *
b0000101011100000 ;
b0001010111000000 #
b0011011001100000 2
b0001101100110000 >
b0001101100110000 4
#320
0&
#325
1&
b00000000000000000000000000000011 $
b000010000 6
b000001100 ,
b100 7
b0001101100110000 *
b0000110110011000 ;
b0001101100110000 #
0-
b010101110 0
b010101110 1
1.
1/
b1110001000011000 2
b1111000100001100 >
b0111000100001100 4
b0101011100000000 <
b1010100100000000 =
b1011011010011000 2
b1101101101001100 >
b0101101101001100 4
#330
0&
#335
1&
b00000000000000000000000000000100 $
b000000100 6
b000000011 ,
b011 7
b1101101101001100 *
b1110110110100110 ;
b1101101101001100 #
0/
b0100010010100110 2
b0010001001010011 >
b0010001001010011 4
#340
0&
#345
1&
b00000000000000000000000000000101 $
b000000001 6
b000000000 ,
b000 7
b0010001001010011 *
b0001000100101001 ;
b0010001001010011 #
0.
b000000000 0
b000000000 1
b0110100000101001 2
b0011010000010100 >
b0011010000010100 4
b0000000000000000 <
b0000000000000000 =
b0001000100101001 2
b0000100010010100 >
b0000100010010100 4
#350
0&
#355
1&
b00000000000000000000000000000000 $
1%
b000000000 6
b0000100010010100 *
b0000010001001010 ;
b0000100010010100 #
b0000010001001010 2
b0000001000100101 >
b0000001000100101 4
#360
0&
#365
1&
1'
b011001010 ,
b010 7
b100000000 6
b0000001000100101 *
b0000000100010010 ;
b0000001000100101 #
1-
b001010111 1
b0000000100010010 2
b0000000010001001 >
b0000000010001001 4
b0010101110000000 <
b1101010010000000 =
b0010110010010010 2
b0001011001001001 >
b0001011001001001 4
#370
0&
#375
1&
b00000000 +
b000000000 :
b000000000 1
b000000000 9
b000000000 ,
b000 7
b000000000 6
b0000000000000000 *
b0000000000000000 ;
b0000000000000000 #
b0000000000000000 <
b0000000000000000 =
0-
b0000000000000000 2
b0000000000000000 >
b0000000000000000 4
#380
0&
#385
1&
0'
b00100100 !
b00100100 (
b01011000 "
b01011000 )
b010110000 5
0%
#390
0&
#395
1&
b00000000000000000000000000000001 $
b00100100 +
b000100100 :
b001001000 9
b010110000 ,
b100000000 6
#400
0&
#405
1&
b00000000000000000000000000000010 $
b001000000 6
b000101100 ,
b100 7
1.
b001001000 0
b001001000 1
1/
b0010010000000000 <
b1101110000000000 =
b1101110000000000 2
b1110111000000000 >
b0110111000000000 4
#410
0&
#415
1&
b00000000000000000000000000000011 $
b000010000 6
b000001011 ,
b011 7
b1110111000000000 *
b1111011100000000 ;
b1110111000000000 #
0/
b0001101100000000 2
b0000110110000000 >
b0000110110000000 4
#420
0&
#425
1&
b00000000000000000000000000000100 $
b000000100 6
b000000010 ,
b010 7
b0000110110000000 *
b0000011011000000 ;
b0000110110000000 #
1-
b000000000 0
b000100100 1
0.
b0010101011000000 2
b0001010101100000 >
b0001010101100000 4
b0001001000000000 <
b1110111000000000 =
b0001100011000000 2
b0000110001100000 >
b0000110001100000 4
#430
0&
#435
1&
b00000000000000000000000000000101 $
b000000001 6
b000000000 ,
b000 7
b0000110001100000 *
b0000011000110000 ;
b0000110001100000 #
0-
b000000000 1
b0001100000110000 2
b0000110000011000 >
b0000110000011000 4
b0000000000000000 <
b0000000000000000 =
b0000011000110000 2
b0000001100011000 >
b0000001100011000 4
#440
0&
#445
1&
b00000000000000000000000000000000 $
1%
b000000000 6
b0000001100011000 *
b0000000110001100 ;
b0000001100011000 #
b0000000110001100 2
b0000000011000110 >
b0000000011000110 4
#450
0&
#455
1&
1'
b010110000 ,
b100000000 6
b0000000011000110 *
b0000000001100011 ;
b0000000011000110 #
b0000000001100011 2
b0000000000110001 >
b0000000000110001 4
#460
0&
#465
1&
b00000000 +
b000000000 :
b000000000 9
b000000000 ,
b000000000 6
b0000000000000000 *
b0000000000000000 ;
b0000000000000000 #
b0000000000000000 2
b0000000000000000 >
b0000000000000000 4
#470
0&
#475
1&
0'
b00101000 !
b00101000 (
b00000011 "
b00000011 )
b000000110 5
0%
#480
0&
#485
1&
b00000000000000000000000000000001 $
b00101000 +
b000101000 :
b001010000 9
b000000110 ,
b110 7
b100000000 6
1-
b000101000 1
1/
b0001010000000000 <
b1110110000000000 =
b1110110000000000 2
b1111011000000000 >
b0111011000000000 4
#490
0&
#495
1&
b00000000000000000000000000000010 $
b001000000 6
b000000001 ,
b001 7
b1111011000000000 *
b1111101100000000 ;
b1111011000000000 #
0/
b0000111100000000 2
b0000011110000000 >
b0000011110000000 4
#500
0&
#505
1&
b00000000000000000000000000000011 $
b000010000 6
b000000000 ,
b000 7
b0000011110000000 *
b0000001111000000 ;
b0000011110000000 #
0-
b000000000 1
b0001011111000000 2
b0000101111100000 >
b0000101111100000 4
b0000000000000000 <
b0000000000000000 =
b0000001111000000 2
b0000000111100000 >
b0000000111100000 4
#510
0&
#515
1&
b00000000000000000000000000000100 $
b000000100 6
b0000000111100000 *
b0000000011110000 ;
b0000000111100000 #
b0000000011110000 2
b0000000001111000 >
b0000000001111000 4
#520
0&
#525
1&
b00000000000000000000000000000101 $
b000000001 6
b0000000001111000 *
b0000000000111100 ;
b0000000001111000 #
b0000000000111100 2
b0000000000011110 >
b0000000000011110 4
#530
0&
#535
1&
b00000000000000000000000000000000 $
1%
b000000000 6
b0000000000011110 *
b0000000000001111 ;
b0000000000011110 #
b0000000000001111 2
b0000000000000111 >
b0000000000000111 4
#540
0&
#545
1&
1'
b000000110 ,
b110 7
b100000000 6
b0000000000000111 *
b0000000000000011 ;
b0000000000000111 #
1-
b000101000 1
1/
b0000000000000011 2
b0000000000000001 >
b0000000000000001 4
b0001010000000000 <
b1110110000000000 =
b1110110000000011 2
b1111011000000001 >
b0111011000000001 4
#550
0&
#555
1&
b00000000 +
b000000000 :
b000000000 1
b000000000 9
b000000000 ,
b000 7
b000000000 6
b0000000000000000 *
b0000000000000000 ;
b0000000000000000 #
b0000000000000000 <
b0000000000000000 =
0-
0/
b0000000000000000 2
b0000000000000000 >
b0000000000000000 4
#560
0&
#565
1&
0'
b00100011 !
b00100011 (
b10000101 "
b10000101 )
b100001010 5
0%
#570
0&
#575
1&
b00000000000000000000000000000001 $
b00100011 +
b000100011 :
b001000110 9
b100001010 ,
b010 7
b100000000 6
1-
b000100011 1
b0001000110000000 <
b1110111010000000 =
b0001000110000000 2
b0000100011000000 >
b0000100011000000 4
#580
0&
#585
1&
b00000000000000000000000000000010 $
b001000000 6
b001000010 ,
b0000100011000000 *
b0000010001100000 ;
b0000100011000000 #
b0001010111100000 2
b0000101011110000 >
b0000101011110000 4
#590
0&
#595
1&
b00000000000000000000000000000011 $
b000010000 6
b000010000 ,
b000 7
b0000101011110000 *
b0000010101111000 ;
b0000101011110000 #
0-
b000000000 1
b0001011011111000 2
b0000101101111100 >
b0000101101111100 4
b0000000000000000 <
b0000000000000000 =
b0000010101111000 2
b0000001010111100 >
b0000001010111100 4
#600
0&
#605
1&
b00000000000000000000000000000100 $
b000000100 6
b000000100 ,
b100 7
b0000001010111100 *
b0000000101011110 ;
b0000001010111100 #
1.
b001000110 0
b001000110 1
1/
b0000000101011110 2
b0000000010101111 >
b0000000010101111 4
b0010001100000000 <
b1101110100000000 =
b1101111001011110 2
b1110111100101111 >
b0110111100101111 4
#610
0&
#615
1&
b00000000000000000000000000000101 $
b000000001 6
b000000001 ,
b001 7
b1110111100101111 *
b1111011110010111 ;
b1110111100101111 #
1-
b000000000 0
b000100011 1
0.
0/
b0001101010010111 2
b0000110101001011 >
b0000110101001011 4
b0001000110000000 <
b1110111010000000 =
b0000100100010111 2
b0000010010001011 >
b0000010010001011 4
#620
0&
#625
1&
b00000000000000000000000000000000 $
1%
b000000000 6
b000000000 ,
b000 7
b0000010010001011 *
b0000001001000101 ;
b0000010010001011 #
0-
b000000000 1
b0001001111000101 2
b0000100111100010 >
b0000100111100010 4
b0000000000000000 <
b0000000000000000 =
b0000001001000101 2
b0000000100100010 >
b0000000100100010 4
#630
0&
#635
1&
1'
b100001010 ,
b010 7
b100000000 6
b0000000100100010 *
b0000000010010001 ;
b0000000100100010 #
1-
b000100011 1
b0000000010010001 2
b0000000001001000 >
b0000000001001000 4
b0001000110000000 <
b1110111010000000 =
b0001001000010001 2
b0000100100001000 >
b0000100100001000 4
#640
0&
#645
1&
b00000000 +
b000000000 :
b000000000 1
b000000000 9
b000000000 ,
b000 7
b000000000 6
b0000000000000000 *
b0000000000000000 ;
b0000000000000000 #
b0000000000000000 <
b0000000000000000 =
0-
b0000000000000000 2
b0000000000000000 >
b0000000000000000 4
#650
0&
#655
1&
0'
b00101010 !
b00101010 (
b10000000 "
b10000000 )
b100000000 5
0%
#660
0&
#665
1&
b00000000000000000000000000000001 $
b00101010 +
b000101010 :
b001010100 9
b100000000 ,
b100000000 6
#670
0&
#675
1&
b00000000000000000000000000000010 $
b001000000 6
b001000000 ,
#680
0&
#685
1&
b00000000000000000000000000000011 $
b000010000 6
b000010000 ,
#690
0&
#695
1&
b00000000000000000000000000000100 $
b000000100 6
b000000100 ,
b100 7
1.
b001010100 0
b001010100 1
1/
b0010101000000000 <
b1101011000000000 =
b1101011000000000 2
b1110101100000000 >
b0110101100000000 4
#700
0&
#705
1&
b00000000000000000000000000000101 $
b000000001 6
b000000001 ,
b001 7
b1110101100000000 *
b1111010110000000 ;
b1110101100000000 #
1-
b000000000 0
b000101010 1
0.
0/
b0001111110000000 2
b0000111111000000 >
b0000111111000000 4
b0001010100000000 <
b1110101100000000 =
b0000101010000000 2
b0000010101000000 >
b0000010101000000 4
#710
0&
#715
1&
b00000000000000000000000000000000 $
1%
b000000000 6
b000000000 ,
b000 7
b0000010101000000 *
b0000001010100000 ;
b0000010101000000 #
0-
b000000000 1
b0001011110100000 2
b0000101111010000 >
b0000101111010000 4
b0000000000000000 <
b0000000000000000 =
b0000001010100000 2
b0000000101010000 >
b0000000101010000 4
#720
0&
#725
1&
1'
b100000000 ,
b100000000 6
b0000000101010000 *
b0000000010101000 ;
b0000000101010000 #
b0000000010101000 2
b0000000001010100 >
b0000000001010100 4
#730
0&
#735
1&
b00000000 +
b000000000 :
b000000000 9
b000000000 ,
b000000000 6
b0000000000000000 *
b0000000000000000 ;
b0000000000000000 #
b0000000000000000 2
b0000000000000000 >
b0000000000000000 4
#740
0&
#745
1&
0'
b01000010 !
b01000010 (
b00111101 "
b00111101 )
b001111010 5
0%
#750
0&
#755
1&
b00000000000000000000000000000001 $
b01000010 +
b001000010 :
b010000100 9
b001111010 ,
b010 7
b100000000 6
1-
b001000010 1
b0010000100000000 <
b1101111100000000 =
b0010000100000000 2
b0001000010000000 >
b0001000010000000 4
#760
0&
#765
1&
b00000000000000000000000000000010 $
b001000000 6
b000011110 ,
b110 7
b0001000010000000 *
b0000100001000000 ;
b0001000010000000 #
1/
b1110011101000000 2
b1111001110100000 >
b0111001110100000 4
#770
0&
#775
1&
b00000000000000000000000000000011 $
b000010000 6
b000000111 ,
b111 7
b1111001110100000 *
b1111100111010000 ;
b1111001110100000 #
0-
b000000000 1
0/
b0001101011010000 2
b0000110101101000 >
b0000110101101000 4
b0000000000000000 <
b0000000000000000 =
b1111100111010000 2
b1111110011101000 >
b0111110011101000 4
#780
0&
#785
1&
b00000000000000000000000000000100 $
b000000100 6
b000000001 ,
b001 7
b1111110011101000 *
b1111111001110100 ;
b1111110011101000 #
1-
b001000010 1
b1111111001110100 2
b1111111100111010 >
b0111111100111010 4
b0010000100000000 <
b1101111100000000 =
b0001111101110100 2
b0000111110111010 >
b0000111110111010 4
#790
0&
#795
1&
b00000000000000000000000000000101 $
b000000001 6
b000000000 ,
b000 7
b0000111110111010 *
b0000011111011101 ;
b0000111110111010 #
0-
b000000000 1
b0010100011011101 2
b0001010001101110 >
b0001010001101110 4
b0000000000000000 <
b0000000000000000 =
b0000011111011101 2
b0000001111101110 >
b0000001111101110 4
#800
0&
#805
1&
b00000000000000000000000000000000 $
1%
b000000000 6
b0000001111101110 *
b0000000111110111 ;
b0000001111101110 #
b0000000111110111 2
b0000000011111011 >
b0000000011111011 4
#810
0&
#815
1&
1'
b001111010 ,
b010 7
b100000000 6
b0000000011111011 *
b0000000001111101 ;
b0000000011111011 #
1-
b001000010 1
b0000000001111101 2
b0000000000111110 >
b0000000000111110 4
b0010000100000000 <
b1101111100000000 =
b0010000101111101 2
b0001000010111110 >
b0001000010111110 4
#820
0&
#825
1&
b00000000 +
b000000000 :
b000000000 1
b000000000 9
b000000000 ,
b000 7
b000000000 6
b0000000000000000 *
b0000000000000000 ;
b0000000000000000 #
b0000000000000000 <
b0000000000000000 =
0-
b0000000000000000 2
b0000000000000000 >
b0000000000000000 4
#830
0&
#835
1&
0'
b01100000 !
b01100000 (
b01010001 "
b01010001 )
b010100010 5
0%
#840
0&
#845
1&
b00000000000000000000000000000001 $
b01100000 +
b001100000 :
b011000000 9
b010100010 ,
b010 7
b100000000 6
1-
b001100000 1
b0011000000000000 <
b1101000000000000 =
b0011000000000000 2
b0001100000000000 >
b0001100000000000 4
#850
0&
#855
1&
b00000000000000000000000000000010 $
b001000000 6
b000101000 ,
b000 7
b0001100000000000 *
b0000110000000000 ;
b0001100000000000 #
0-
b000000000 1
b0011110000000000 2
b0001111000000000 >
b0001111000000000 4
b0000000000000000 <
b0000000000000000 =
b0000110000000000 2
b0000011000000000 >
b0000011000000000 4
#860
0&
#865
1&
b00000000000000000000000000000011 $
b000010000 6
b000001010 ,
b010 7
b0000011000000000 *
b0000001100000000 ;
b0000011000000000 #
1-
b001100000 1
b0000001100000000 2
b0000000110000000 >
b0000000110000000 4
b0011000000000000 <
b1101000000000000 =
b0011001100000000 2
b0001100110000000 >
b0001100110000000 4
#870
0&
#875
1&
b00000000000000000000000000000100 $
b000000100 6
b000000010 ,
b0001100110000000 *
b0000110011000000 ;
b0001100110000000 #
b0011110011000000 2
b0001111001100000 >
b0001111001100000 4
#880
0&
#885
1&
b00000000000000000000000000000101 $
b000000001 6
b000000000 ,
b000 7
b0001111001100000 *
b0000111100110000 ;
b0001111001100000 #
0-
b000000000 1
b0011111100110000 2
b0001111110011000 >
b0001111110011000 4
b0000000000000000 <
b0000000000000000 =
b0000111100110000 2
b0000011110011000 >
b0000011110011000 4
#890
0&
#895
1&
b00000000000000000000000000000000 $
1%
b000000000 6
b0000011110011000 *
b0000001111001100 ;
b0000011110011000 #
b0000001111001100 2
b0000000111100110 >
b0000000111100110 4
#900
0&
#905
1&
1'
b010100010 ,
b010 7
b100000000 6
b0000000111100110 *
b0000000011110011 ;
b0000000111100110 #
1-
b001100000 1
b0000000011110011 2
b0000000001111001 >
b0000000001111001 4
b0011000000000000 <
b1101000000000000 =
b0011000011110011 2
b0001100001111001 >
b0001100001111001 4
#910
0&
#915
1&
b00000000 +
b000000000 :
b000000000 1
b000000000 9
b000000000 ,
b000 7
b000000000 6
b0000000000000000 *
b0000000000000000 ;
b0000000000000000 #
b0000000000000000 <
b0000000000000000 =
0-
b0000000000000000 2
b0000000000000000 >
b0000000000000000 4
#920
0&
#925
1&
0'
b00000011 !
b00000011 (
b00001100 "
b00001100 )
b000011000 5
0%
#930
0&
#935
1&
b00000000000000000000000000000001 $
b00000011 +
b000000011 :
b000000110 9
b000011000 ,
b100000000 6
#940
0&
#945
1&
b00000000000000000000000000000010 $
b001000000 6
b000000110 ,
b110 7
1-
b000000011 1
1/
b0000000110000000 <
b1111111010000000 =
b1111111010000000 2
b1111111101000000 >
b0111111101000000 4
#950
0&
#955
1&
b00000000000000000000000000000011 $
b000010000 6
b000000001 ,
b001 7
b1111111101000000 *
b1111111110100000 ;
b1111111101000000 #
0/
b0000000100100000 2
b0000000010010000 >
b0000000010010000 4
#960
0&
#965
1&
b00000000000000000000000000000100 $
b000000100 6
b000000000 ,
b000 7
b0000000010010000 *
b0000000001001000 ;
b0000000010010000 #
0-
b000000000 1
b0000000111001000 2
b0000000011100100 >
b0000000011100100 4
b0000000000000000 <
b0000000000000000 =
b0000000001001000 2
b0000000000100100 >
b0000000000100100 4
#970
0&
#975
1&
b00000000000000000000000000000101 $
b000000001 6
b0000000000100100 *
b0000000000010010 ;
b0000000000100100 #
b0000000000010010 2
b0000000000001001 >
b0000000000001001 4
#980
0&
#985
1&
b00000000000000000000000000000000 $
1%
b000000000 6
b0000000000001001 *
b0000000000000100 ;
b0000000000001001 #
b0000000000000100 2
b0000000000000010 >
b0000000000000010 4
#990
0&
#995
1&
1'
b000011000 ,
b100000000 6
b0000000000000010 *
b0000000000000001 ;
b0000000000000010 #
b0000000000000001 2
b0000000000000000 >
b0000000000000000 4
#1000
0&
#1005
1&
b00000000 +
b000000000 :
b000000000 9
b000000000 ,
b000000000 6
b0000000000000000 *
b0000000000000000 ;
b0000000000000000 #
b0000000000000000 2
#1010
0&
#1015
1&
0'
b10000100 !
b10000100 (
b00111101 "
b00111101 )
b001111010 5
0%
#1020
0&
#1025
1&
b00000000000000000000000000000001 $
b10000100 +
b110000100 :
b100001000 9
b001111010 ,
b010 7
b100000000 6
1-
b110000100 1
b1100001000000000 <
b0011111000000000 =
b1100001000000000 2
b1110000100000000 >
b0110000100000000 4
#1030
0&
#1035
1&
b00000000000000000000000000000010 $
b001000000 6
b000011110 ,
b110 7
b1110000100000000 *
b1111000010000000 ;
b1110000100000000 #
1/
b0010111010000000 2
b0001011101000000 >
b0001011101000000 4
#1040
0&
#1045
1&
b00000000000000000000000000000011 $
b000010000 6
b000000111 ,
b111 7
b0001011101000000 *
b0000101110100000 ;
b0001011101000000 #
0-
b000000000 1
0/
b1100110110100000 2
b1110011011010000 >
b0110011011010000 4
b0000000000000000 <
b0000000000000000 =
b0000101110100000 2
b0000010111010000 >
b0000010111010000 4
#1050
0&
#1055
1&
b00000000000000000000000000000100 $
b000000100 6
b000000001 ,
b001 7
b0000010111010000 *
b0000001011101000 ;
b0000010111010000 #
1-
b110000100 1
b0000001011101000 2
b0000000101110100 >
b0000000101110100 4
b1100001000000000 <
b0011111000000000 =
b1100010011101000 2
b1110001001110100 >
b0110001001110100 4
#1060
0&
#1065
1&
b00000000000000000000000000000101 $
b000000001 6
b000000000 ,
b000 7
b1110001001110100 *
b1111000100111010 ;
b1110001001110100 #
0-
b000000000 1
b1011001100111010 2
b1101100110011101 >
b0101100110011101 4
b0000000000000000 <
b0000000000000000 =
b1111000100111010 2
b1111100010011101 >
b0111100010011101 4
#1070
0&
#1075
1&
b00000000000000000000000000000000 $
1%
b000000000 6
b1111100010011101 *
b1111110001001110 ;
b1111100010011101 #
b1111110001001110 2
b1111111000100111 >
b0111111000100111 4
#1080
0&
#1085
1&
1'
b001111010 ,
b010 7
b100000000 6
b1111111000100111 *
b1111111100010011 ;
b1111111000100111 #
1-
b110000100 1
b1111111100010011 2
b1111111110001001 >
b0111111110001001 4
b1100001000000000 <
b0011111000000000 =
b1100000100010011 2
b1110000010001001 >
b0110000010001001 4
#1090
0&
#1095
1&
b00000000 +
b000000000 :
b000000000 1
b000000000 9
b000000000 ,
b000 7
b000000000 6
b0000000000000000 *
b0000000000000000 ;
b0000000000000000 #
b0000000000000000 <
b0000000000000000 =
0-
b0000000000000000 2
b0000000000000000 >
b0000000000000000 4
#1100
0&
#1105
1&
0'
b00011101 !
b00011101 (
b01000100 "
b01000100 )
b010001000 5
0%
#1110
0&
#1115
1&
b00000000000000000000000000000001 $
b00011101 +
b000011101 :
b000111010 9
b010001000 ,
b100000000 6
#1120
0&
#1125
1&
b00000000000000000000000000000010 $
b001000000 6
b000100010 ,
b010 7
1-
b000011101 1
b0000111010000000 <
b1111000110000000 =
b0000111010000000 2
b0000011101000000 >
b0000011101000000 4
#1130
0&
